"23.95641247172139","13.823943509737358","27.21653432169041","5.480524872260107","14.153679579392609","59.85050301474561"
"26.047779514154968","65.07859537978558","2.0558958952579753","23.52928743210616","70.8504092539491","67.34806276448589"
"0.8015930052644116","41.73644529749131","29.324317184690642","57.44758410680437","36.83468233838176","75.63514577947619"
"64.19326073535052","81.43669908040326","79.41056999491633","88.18794586741615","97.43295549552549","97.90325534937077"
"21.501959883705346","1.8904491548039415","64.18775998421947","9.67574049409613","86.85108105882269","36.69264098329109"
"66.91367068098646","98.64350455256782","19.653297677993553","60.593912740070444","4.836114819150527","74.54003281209802"
"85.72039843957663","33.542223950415426","58.98683970414334","42.001388759509176","76.96009466542641","89.0374550859585"
"58.884962808820795","49.29396329677278","64.62154778608425","77.23349359570251","43.353000884606516","6.812786137681015"
"90.99506059966075","88.35315682531012","55.00954312059194","53.78355983450921","24.11730545891896","85.87453324883151"
"75.65594350441584","7.5587265876724485","25.52176805347476","5.21693684277783","18.075240269056824","51.47982434114019"
"97.18736828873577","15.549132383034447","38.68726001257535","4.485489289718747","80.57646948938503","99.86202694806533"
"25.054664863788002","68.47639793639149","78.01683043275499","81.59260516486816","42.410469489343186","67.90561706019062"
"54.67026057832992","14.855375646513668","94.17835785192065","80.1446915544807","57.94407701487957","59.73209049939213"
"62.88285865681845","4.882973920834455","60.43973242080254","84.09015071633704","49.897291550466086","36.149641362490215"
"92.39622397904954","69.0444900552761","25.15313196059934","81.50493540319405","80.07424228630106","46.447394445284765"
"31.23522192649143","19.529144422538668","47.64023991842934","63.685150462942076","60.21304457620198","98.94488940002455"
"71.84791050775107","53.580012411904164","36.10909745755866","60.54037047721948","1.1778591934641147","85.34044244497441"
"91.08109123856303","6.518122930026237","64.08448283252217","86.27220107318688","19.19558871631314","50.9760373318276"
"94.61242433657524","53.357305073941475","28.09640612186429","59.93426294195404","97.883183003029","18.827436184186965"
"85.92188962237634","29.653777912559498","62.81578121263378","94.50295783575245","78.50100850782084","57.94935322995299"
